…
```r
steps_day <- activity_df %>% 
        group_by(date) %>% 
        summarise(
        steps = sum(steps)
)
steps_day
```

```
## # A tibble: 61 × 2
##    date       steps
##    <date>     <dbl>
##  1 2012-10-01    NA
##  2 2012-10-02   126
##  3 2012-10-03 11352
##  4 2012-10-04 12116
##  5 2012-10-05 13294
##  6 2012-10-06 15420
##  7 2012-10-07 11015
##  8 2012-10-08    NA
##  9 2012-10-09 12811
## 10 2012-10-10  9900
## # ℹ 51 more rows
```
…
